<?xml version="1.0" encoding="iso-8859-1"?>
<!-- Generator: Adobe Illustrator 19.0.0, SVG Export Plug-In . SVG Version: 6.00 Build 0)  -->
<svg version="1.1" id="Capa_1" xmlns="http://www.w3.org/2000/svg" xmlns:xlink="http://www.w3.org/1999/xlink" x="0px" y="0px"
	 viewBox="0 0 512 512" style="enable-background:new 0 0 512 512;" xml:space="preserve">
<g>
	<path style="fill:#A5A5A4;" d="M0,335.448L74.232,55.016C77.307,43.4,87.817,35.31,99.833,35.31h312.334
		c12.016,0,22.526,8.09,25.601,19.706L512,335.448H0z"/>
	<path style="fill:#D1D4D1;" d="M0,335.448h512v114.759c0,14.626-11.857,26.483-26.483,26.483H26.483
		C11.857,476.69,0,464.833,0,450.207V335.448z"/>
	<circle style="fill:#95A5A5;" cx="256" cy="406.069" r="35.31"/>
	<path style="fill:#7F8C8D;" d="M256,414.897c-2.342,0.003-4.588-0.928-6.241-2.586l-24.966-24.965
		c-3.437-3.449-3.432-9.029,0.011-12.472c3.443-3.443,9.023-3.448,12.472-0.011l24.965,24.966c2.524,2.525,3.279,6.321,1.913,9.619
		C262.788,412.745,259.57,414.896,256,414.897z"/>
	<circle style="fill:#CC4B4C;" cx="70.621" cy="406.069" r="17.655"/>
	<path style="fill:#E57E25;" d="M426.31,266.656l-22.826,22.826c-2.525,2.525-3.28,6.322-1.914,9.62
		c1.366,3.299,4.585,5.449,8.156,5.449h45.653c3.57,0,6.789-2.151,8.156-5.449c1.366-3.299,0.611-7.096-1.914-9.62l-22.826-22.826
		c-1.656-1.655-3.901-2.586-6.242-2.586S427.965,265,426.31,266.656z"/>
	<path style="fill:#5E5F62;" d="M441.379,176.552c0-63.276-83.164-114.759-185.379-114.759S70.621,113.276,70.621,176.552
		c0,33.086,22.871,62.858,59.181,83.822c0.941,0.856,2.064,1.487,3.283,1.848c37.927,19.734,80.165,29.731,122.915,29.089
		c42.75,0.641,84.988-9.355,122.915-29.089c1.22-0.36,2.343-0.992,3.284-1.848C418.508,239.41,441.379,209.638,441.379,176.552z
		 M423.724,176.552c0,25.978-17.814,49.552-46.613,66.995l-14.664-10.496c27.08-14.298,43.622-34.186,43.622-56.499
		c0-42.971-61.385-76.862-141.241-79.219V79.707C353.197,82.39,423.724,124.734,423.724,176.552z M256,203.034
		c-62.828,0-97.103-17.491-97.103-26.483s34.276-26.483,97.103-26.483s97.103,17.491,97.103,26.483S318.828,203.034,256,203.034z
		 M247.172,132.56c-54.003,1.481-105.931,16.513-105.931,43.991c0,15.275,16.122,26.67,39.65,34.07l-14.94,10.693
		c-25.86-11.36-42.365-27.337-42.365-44.763c0-32.103,55.751-59.366,123.586-61.577V132.56z M203.478,216.159
		c17.338,3.07,34.914,4.586,52.522,4.531c17.607,0.055,35.184-1.461,52.522-4.531l17.418,12.469
		c-22.73,6.562-46.282,9.835-69.94,9.717c-23.658,0.118-47.21-3.154-69.94-9.717L203.478,216.159z M331.109,210.621
		c23.528-7.4,39.65-18.795,39.65-34.07c0-27.478-51.928-42.51-105.931-43.991v-17.586c67.836,2.211,123.586,29.474,123.586,61.577
		c0,17.426-16.505,33.402-42.365,44.763L331.109,210.621z M88.276,176.552c0-51.818,70.527-94.162,158.897-96.845v17.626
		c-79.857,2.357-141.241,36.248-141.241,79.219c0,22.313,16.542,42.201,43.622,56.499l-14.664,10.496
		C106.089,226.104,88.276,202.53,88.276,176.552z M152.365,252.749l15.942-11.412C196.438,251.383,226.131,256.348,256,256
		c29.869,0.348,59.562-4.617,87.693-14.663l15.942,11.412c-32.682,14.205-68.002,21.33-103.635,20.906
		C220.367,274.079,185.047,266.955,152.365,252.749z"/>
</g>
<g>
</g>
<g>
</g>
<g>
</g>
<g>
</g>
<g>
</g>
<g>
</g>
<g>
</g>
<g>
</g>
<g>
</g>
<g>
</g>
<g>
</g>
<g>
</g>
<g>
</g>
<g>
</g>
<g>
</g>
</svg>
