<?xml version="1.0" encoding="iso-8859-1"?>
<!-- Generator: Adobe Illustrator 19.0.0, SVG Export Plug-In . SVG Version: 6.00 Build 0)  -->
<svg version="1.1" id="Capa_1" xmlns="http://www.w3.org/2000/svg" xmlns:xlink="http://www.w3.org/1999/xlink" x="0px" y="0px"
	 viewBox="0 0 512 512" style="enable-background:new 0 0 512 512;" xml:space="preserve">
<g>
	<polyline style="fill:#95A5A5;" points="115.515,280.717 115.515,450.207 397.997,450.207 397.997,132.414 115.515,132.414 
		115.515,238.345 	"/>
	<path style="fill:#90BAE1;" d="M300.541,406.069c-9.447,0.016-18.376-4.31-24.22-11.733c-2.978-3.823-2.317-9.333,1.481-12.343
		s9.313-2.395,12.355,1.377c3.832,4.853,10.515,6.406,16.095,3.74c5.58-2.666,8.57-8.84,7.202-14.871s-6.729-10.311-12.914-10.309
		c-3.237,0.019-6.359,1.2-8.797,3.328c-2.387,2.06-5.692,2.691-8.67,1.654c-2.978-1.037-5.176-3.584-5.767-6.681
		c-0.591-3.097,0.515-6.275,2.902-8.335c10.339-9.031,25.396-10.159,36.964-2.768c11.568,7.391,16.874,21.527,13.025,34.704
		C326.349,397.01,314.268,406.068,300.541,406.069z"/>
	<path style="fill:#CBB292;" d="M417.418,459.034l-4.943,24.541c-3.268,16.522-17.762,28.427-34.604,28.425H135.642
		c-16.842,0.003-31.336-11.903-34.604-28.425l-4.943-24.541H417.418z"/>
	<path style="fill:#7F6E5D;" d="M422.362,434.317l-4.943,24.717H96.094l-4.943-24.717c-0.514-2.595,0.157-5.285,1.831-7.334
		c1.674-2.049,4.175-3.244,6.82-3.259h313.909c2.646,0.015,5.147,1.21,6.82,3.259C422.204,429.032,422.876,431.722,422.362,434.317z
		"/>
	<rect x="221.446" y="194.207" style="fill:#ECF0F1;" width="70.621" height="52.966"/>
	<path style="fill:#7F6E5D;" d="M106.687,247.172h114.759v35.31H106.687c-9.751,0-17.655-7.904-17.655-17.655
		C89.032,255.077,96.936,247.172,106.687,247.172z"/>
	<g>
		<path style="fill:#ECF0F1;" d="M353.859,220.69c-2.341,0.001-4.587-0.929-6.243-2.585c-1.656-1.656-2.585-3.901-2.585-6.243
			v-52.966c0-4.875,3.952-8.828,8.828-8.828s8.828,3.952,8.828,8.828v52.966c0.001,2.341-0.929,4.587-2.585,6.243
			C358.447,219.76,356.201,220.69,353.859,220.69z"/>
		<path style="fill:#ECF0F1;" d="M159.653,220.69c-2.341,0.001-4.587-0.929-6.243-2.585c-1.656-1.656-2.585-3.901-2.585-6.243
			v-52.966c0-4.875,3.952-8.828,8.828-8.828s8.828,3.952,8.828,8.828v52.966c0.001,2.341-0.929,4.587-2.585,6.243
			C164.24,219.76,161.994,220.69,159.653,220.69z"/>
	</g>
	<path style="fill:#CBB292;" d="M287.653,379.41l-4.414,44.314h-52.965l-5.297-52.612l0.53-0.088
		c20.944-1.16,41.916,1.686,61.793,8.386H287.653z"/>
	<path style="fill:#B0D3F0;" d="M292.066,335.448l-4.414,43.961h-0.353c-19.877-6.7-40.85-9.547-61.793-8.386l-0.53,0.088
		l-3.531-35.663H292.066z"/>
	<path style="fill:#ECF0F1;" d="M256.756,308.966c-2.341,0.001-4.587-0.929-6.243-2.585c-1.656-1.656-2.585-3.901-2.585-6.243
		v-17.655c0-4.875,3.952-8.828,8.828-8.828c4.875,0,8.828,3.952,8.828,8.828v17.655c0.001,2.341-0.929,4.587-2.585,6.243
		C261.343,308.036,259.097,308.966,256.756,308.966z"/>
	<path style="fill:#BDC3C7;" d="M221.446,247.172h70.621v26.483c0,4.875-3.952,8.828-8.828,8.828h-61.793V247.172z"/>
	<rect x="203.791" y="158.897" style="fill:#D1D4D1;" width="105.931" height="35.31"/>
	<path style="fill:#CBB292;" d="M396.485,158.897H117.027c-7.279,0-14.236-2.996-19.238-8.283s-7.607-12.401-7.203-19.668
		l4.495-80.917C96.639,21.96,119.854,0,147.964,0h217.584c28.111,0,51.325,21.96,52.884,50.028l4.495,80.917
		c0.404,7.267-2.201,14.381-7.203,19.668S403.764,158.897,396.485,158.897z"/>
	<circle style="fill:#ECF0F1;" cx="256.756" cy="79.448" r="44.138"/>
	<path style="fill:#95A5A5;" d="M256.756,88.276c-2.342,0.003-4.588-0.928-6.241-2.586l-31.212-31.207
		c-2.236-2.229-3.112-5.482-2.297-8.532c0.815-3.05,3.198-5.432,6.248-6.248c3.05-0.815,6.303,0.06,8.532,2.297l31.211,31.207
		c2.524,2.525,3.279,6.321,1.913,9.619C263.544,86.124,260.326,88.275,256.756,88.276z"/>
</g>
<g>
</g>
<g>
</g>
<g>
</g>
<g>
</g>
<g>
</g>
<g>
</g>
<g>
</g>
<g>
</g>
<g>
</g>
<g>
</g>
<g>
</g>
<g>
</g>
<g>
</g>
<g>
</g>
<g>
</g>
</svg>
