<?xml version="1.0" encoding="iso-8859-1"?>
<!-- Generator: Adobe Illustrator 19.0.0, SVG Export Plug-In . SVG Version: 6.00 Build 0)  -->
<svg version="1.1" id="Capa_1" xmlns="http://www.w3.org/2000/svg" xmlns:xlink="http://www.w3.org/1999/xlink" x="0px" y="0px"
	 viewBox="0 0 512 512" style="enable-background:new 0 0 512 512;" xml:space="preserve">
<g>
	<path style="fill:#BDC3C7;" d="M423.724,467.862l0,44.138H88.276l0-44.138c-0.015-25.758,10.211-50.465,28.425-68.679
		c18.214-18.214,42.921-28.439,68.679-28.425c-30.507,0.025-56.443-22.27-60.998-52.436L114.759,256
		c-9.739-0.029-17.627-7.916-17.655-17.655c0.071-9.721,7.934-17.585,17.655-17.655h70.709
		c-30.527,0.031-56.491-22.257-61.086-52.436l-9.623-62.323c-9.739-0.029-17.627-7.916-17.655-17.655
		c0.071-9.721,7.934-17.585,17.655-17.655h8.828c-0.025-18.737,7.407-36.715,20.657-49.964C157.492,7.408,175.469-0.025,194.207,0
		h123.586c18.731-0.005,36.697,7.434,49.942,20.679c13.245,13.245,20.684,31.211,20.679,49.942h8.828
		c9.739,0.028,17.627,7.916,17.655,17.655c-0.071,9.721-7.934,17.584-17.655,17.655l-9.623,62.323
		c-4.595,30.179-30.56,52.466-61.086,52.436h70.709c9.739,0.028,17.627,7.916,17.655,17.655
		c-0.071,9.721-7.934,17.584-17.655,17.655l-9.623,62.323c-4.554,30.165-30.491,52.461-60.998,52.436
		c25.758-0.015,50.465,10.211,68.679,28.425C413.513,417.397,423.739,442.104,423.724,467.862z"/>
	<path style="fill:#67B9CC;" d="M414.897,238.345c-0.071,9.721-7.934,17.584-17.655,17.655l-9.623,62.323
		c-4.595,30.179-30.56,52.466-61.086,52.436H185.468c-30.527,0.031-56.491-22.257-61.086-52.436L114.759,256
		c-9.739-0.029-17.627-7.916-17.655-17.655c0.071-9.721,7.934-17.585,17.655-17.655h282.483
		C406.98,220.718,414.868,228.606,414.897,238.345z"/>
	<path style="fill:#84B5CB;" d="M414.897,88.276c-0.071,9.721-7.934,17.584-17.655,17.655l-9.623,62.323
		c-4.595,30.179-30.56,52.466-61.086,52.436H185.468c-30.527,0.031-56.491-22.257-61.086-52.436l-9.623-62.323
		c-9.739-0.029-17.627-7.916-17.655-17.655c0.071-9.721,7.934-17.585,17.655-17.655h282.483
		C406.98,70.649,414.868,78.537,414.897,88.276z"/>
	<circle style="fill:#E6E7E8;" cx="256" cy="441.379" r="35.31"/>
	<path style="fill:#95A5A5;" d="M256,441.379c-2.342,0.001-4.588-0.928-6.244-2.584c-1.656-1.656-2.585-3.902-2.584-6.244v-26.483
		c0-4.875,3.952-8.828,8.828-8.828s8.828,3.952,8.828,8.828v26.483c0.001,2.342-0.928,4.588-2.584,6.244
		C260.588,440.451,258.342,441.381,256,441.379z"/>
	<g>
		<path style="fill:#4482C3;" d="M344.276,485.517h-26.483c-4.875,0-8.828-3.952-8.828-8.828s3.952-8.828,8.828-8.828h26.483
			c4.875,0,8.828,3.952,8.828,8.828S349.151,485.517,344.276,485.517z"/>
		<path style="fill:#4482C3;" d="M158.897,485.517c-2.348,0.023-4.607-0.899-6.268-2.56c-0.778-0.859-1.405-1.845-1.854-2.914
			c-0.497-1.047-0.739-2.196-0.706-3.354c0.014-1.153,0.254-2.293,0.707-3.353c0.426-1.081,1.055-2.07,1.854-2.914
			c2.556-2.471,6.33-3.198,9.621-1.854c1.069,0.449,2.054,1.075,2.914,1.854c0.78,0.858,1.407,1.844,1.854,2.914
			c0.943,2.136,0.943,4.571,0,6.707c-0.449,1.069-1.075,2.054-1.854,2.914C163.502,484.615,161.244,485.537,158.897,485.517z"/>
		<path style="fill:#4482C3;" d="M194.207,485.517c-1.153-0.014-2.293-0.254-3.353-0.707c-1.102-0.425-2.097-1.087-2.914-1.94
			c-0.795-0.814-1.425-1.774-1.854-2.828c-0.497-1.046-0.739-2.196-0.706-3.353c0.031-2.338,0.945-4.577,2.56-6.268
			c2.083-2.069,5.061-2.965,7.94-2.388c0.586,0.086,1.153,0.267,1.681,0.535c0.543,0.174,1.051,0.442,1.5,0.793
			c0.495,0.283,0.942,0.641,1.328,1.06c1.669,1.662,2.62,3.912,2.647,6.268c-0.014,1.153-0.254,2.293-0.707,3.353
			c-0.429,1.075-1.091,2.041-1.94,2.828C198.802,484.597,196.551,485.561,194.207,485.517z"/>
	</g>
	<path style="fill:#BDC3C7;" d="M194.207,0h123.586c39.003,0,70.621,31.618,70.621,70.621H123.586
		C123.586,31.618,155.204,0,194.207,0z"/>
	<g>
		<path style="fill:#9FC9D3;" d="M353.103,264.828H158.897c-4.875,0-8.828-3.952-8.828-8.828s3.952-8.828,8.828-8.828h194.207
			c4.875,0,8.828,3.952,8.828,8.828S357.979,264.828,353.103,264.828z"/>
		<path style="fill:#9FC9D3;" d="M353.103,114.759H158.897c-4.875,0-8.828-3.952-8.828-8.828s3.952-8.828,8.828-8.828h194.207
			c4.875,0,8.828,3.952,8.828,8.828S357.979,114.759,353.103,114.759z"/>
	</g>
	<path style="fill:#95A5A5;" d="M194.207,0h123.586c0,19.501-15.809,35.31-35.31,35.31h-52.966
		C210.016,35.31,194.207,19.501,194.207,0z"/>
</g>
<g>
</g>
<g>
</g>
<g>
</g>
<g>
</g>
<g>
</g>
<g>
</g>
<g>
</g>
<g>
</g>
<g>
</g>
<g>
</g>
<g>
</g>
<g>
</g>
<g>
</g>
<g>
</g>
<g>
</g>
</svg>
