<?xml version="1.0" encoding="iso-8859-1"?>
<!-- Generator: Adobe Illustrator 19.0.0, SVG Export Plug-In . SVG Version: 6.00 Build 0)  -->
<svg version="1.1" id="Capa_1" xmlns="http://www.w3.org/2000/svg" xmlns:xlink="http://www.w3.org/1999/xlink" x="0px" y="0px"
	 viewBox="0 0 512 512" style="enable-background:new 0 0 512 512;" xml:space="preserve">
<g>
	<path style="fill:#802F34;" d="M97.103,48.825l56.981-45.023C157.201,1.34,161.057,0,165.03,0h181.94
		c3.973,0,7.829,1.34,10.946,3.803l56.98,45.024L97.103,48.825z"/>
	<path style="fill:#CC4B4C;" d="M132.414,35.31h247.172c29.252,0,52.966,23.713,52.966,52.966V512H79.448V88.276
		C79.448,59.024,103.162,35.31,132.414,35.31z"/>
	<path style="fill:#D1D4D1;" d="M397.241,97.103v370.759c-0.014,4.87-3.958,8.813-8.828,8.828H123.586
		c-4.869-0.014-8.813-3.958-8.828-8.828V97.103c-0.009-7.027,2.778-13.768,7.746-18.737c4.969-4.969,11.71-7.756,18.737-7.746
		h229.517c7.027-0.009,13.768,2.778,18.737,7.746S397.251,90.077,397.241,97.103z"/>
	<path style="fill:#D75E72;" d="M238.345,383.479v73.472c0,1.37-0.319,2.722-0.932,3.948l-7.896,15.791h-61.793l-7.896-15.791
		c-0.613-1.226-0.932-2.577-0.932-3.948v-73.472c0-3.68,1.15-7.268,3.289-10.262l14.367-20.113h44.138l14.367,20.113
		C237.195,376.211,238.345,379.799,238.345,383.479z"/>
	<path style="fill:#802D40;" d="M238.345,361.931h-79.448c-4.875,0-8.828-3.952-8.828-8.828s3.952-8.828,8.828-8.828h79.448
		c4.875,0,8.828,3.952,8.828,8.828S243.22,361.931,238.345,361.931z"/>
	<path style="fill:#71C285;" d="M353.103,365.823v91.127c0,1.37-0.319,2.722-0.932,3.948l-7.896,15.791h-61.793l-7.896-15.791
		c-0.613-1.226-0.932-2.577-0.932-3.948v-91.127c0-3.68,1.15-7.267,3.289-10.262l14.367-20.113h44.138l14.367,20.113
		C351.954,358.556,353.103,362.144,353.103,365.823z"/>
	<path style="fill:#4C8056;" d="M353.103,344.276h-79.448c-4.875,0-8.828-3.952-8.828-8.828s3.952-8.828,8.828-8.828h79.448
		c4.875,0,8.828,3.952,8.828,8.828S357.979,344.276,353.103,344.276z"/>
	<path style="fill:#4482C3;" d="M353.103,206.927v73.472c0,1.37-0.319,2.722-0.932,3.948l-7.896,15.791h-61.793l-7.896-15.791
		c-0.613-1.226-0.932-2.577-0.932-3.948v-73.472c0-3.68,1.15-7.268,3.289-10.262l14.367-20.113h44.138l14.367,20.113
		C351.954,199.659,353.103,203.247,353.103,206.927z"/>
	<path style="fill:#285680;" d="M353.103,185.379h-79.448c-4.875,0-8.828-3.952-8.828-8.828s3.952-8.828,8.828-8.828h79.448
		c4.875,0,8.828,3.952,8.828,8.828S357.979,185.379,353.103,185.379z"/>
	<path style="fill:#4C8056;" d="M167.35,300.138l-8.38-117.38c-0.369-4.022,0.668-8.048,2.934-11.392l11.516-16.85
		c1.958-2.891,3.005-6.302,3.007-9.793v-29.965c0.035-4.91,4.043-8.862,8.952-8.828h17.655c4.91-0.034,8.918,3.918,8.952,8.828
		v29.965c0.002,3.491,1.049,6.902,3.007,9.793l11.516,16.85c2.266,3.344,3.302,7.37,2.934,11.392l-8.38,117.38"/>
	<polygon style="fill:#71C285;" points="225.103,229.517 163.31,229.517 160.044,194.207 228.37,194.207 	"/>
	<rect x="114.759" y="291.31" style="fill:#A5A5A4;" width="282.483" height="17.655"/>
</g>
<g>
</g>
<g>
</g>
<g>
</g>
<g>
</g>
<g>
</g>
<g>
</g>
<g>
</g>
<g>
</g>
<g>
</g>
<g>
</g>
<g>
</g>
<g>
</g>
<g>
</g>
<g>
</g>
<g>
</g>
</svg>
