<?xml version="1.0" encoding="iso-8859-1"?>
<!-- Generator: Adobe Illustrator 19.0.0, SVG Export Plug-In . SVG Version: 6.00 Build 0)  -->
<svg version="1.1" id="Capa_1" xmlns="http://www.w3.org/2000/svg" xmlns:xlink="http://www.w3.org/1999/xlink" x="0px" y="0px"
	 viewBox="0 0 512 512" style="enable-background:new 0 0 512 512;" xml:space="preserve">
<g>
	<path style="fill:#A5A5A4;" d="M494.345,406.069v70.621c0.003,9.366-3.717,18.348-10.339,24.971
		c-6.623,6.622-15.605,10.342-24.971,10.339H52.966c-9.366,0.003-18.348-3.717-24.971-10.339
		c-6.623-6.623-10.342-15.605-10.339-24.971l0-70.621H494.345z"/>
	<path style="fill:#D1D4D1;" d="M494.345,35.31v370.759H17.655l0-370.759c-0.003-9.366,3.717-18.349,10.339-24.971
		S43.6-0.003,52.966,0h406.069c9.366-0.003,18.349,3.717,24.971,10.339C490.628,16.962,494.347,25.945,494.345,35.31z"/>
	<g>
		<path style="fill:#E57E25;" d="M388.414,185.379c-34.127,0-61.793-27.666-61.793-61.793s27.666-61.793,61.793-61.793
			s61.793,27.666,61.793,61.793C450.167,157.697,422.525,185.34,388.414,185.379z M388.414,79.448
			c-24.377,0-44.138,19.761-44.138,44.138s19.761,44.138,44.138,44.138s44.138-19.761,44.138-44.138
			C432.523,99.221,412.779,79.477,388.414,79.448z"/>
		<path style="fill:#E57E25;" d="M388.414,379.586c-34.127,0-61.793-27.666-61.793-61.793S354.286,256,388.414,256
			s61.793,27.666,61.793,61.793C450.167,351.904,422.525,379.546,388.414,379.586z M388.414,273.655
			c-24.377,0-44.138,19.761-44.138,44.138c0,24.377,19.761,44.138,44.138,44.138s44.138-19.761,44.138-44.138
			C432.523,293.428,412.779,273.684,388.414,273.655z"/>
	</g>
	<path style="fill:#F29C1F;" d="M388.414,344.276c-14.626,0-26.483-11.857-26.483-26.483c0-14.626,11.857-26.483,26.483-26.483
		s26.483,11.857,26.483,26.483C414.881,332.413,403.033,344.26,388.414,344.276z M388.414,308.966c-4.875,0-8.828,3.952-8.828,8.828
		s3.952,8.828,8.828,8.828s8.828-3.952,8.828-8.828C397.237,312.92,393.287,308.97,388.414,308.966z"/>
	<path style="fill:#D25627;" d="M158.897,220.69c-53.629,0-97.103-43.475-97.103-97.103s43.475-97.103,97.103-97.103
		S256,69.957,256,123.586C255.939,177.19,212.5,220.629,158.897,220.69z M158.897,44.138c-43.878,0-79.448,35.57-79.448,79.448
		s35.57,79.448,79.448,79.448s79.448-35.57,79.448-79.448C238.295,79.729,202.754,44.187,158.897,44.138z"/>
	<path style="fill:#E57E25;" d="M158.897,185.379c-34.127,0-61.793-27.666-61.793-61.793s27.666-61.793,61.793-61.793
		s61.793,27.666,61.793,61.793C220.65,157.697,193.007,185.34,158.897,185.379z M158.897,79.448
		c-24.377,0-44.138,19.761-44.138,44.138s19.761,44.138,44.138,44.138s44.138-19.761,44.138-44.138
		C203.006,99.221,183.261,79.477,158.897,79.448z"/>
	<path style="fill:#F29C1F;" d="M158.897,150.069c-14.626,0-26.483-11.857-26.483-26.483s11.857-26.483,26.483-26.483
		c14.626,0,26.483,11.857,26.483,26.483C185.363,138.206,173.516,150.053,158.897,150.069z M158.897,114.759
		c-4.875,0-8.828,3.952-8.828,8.828c0,4.875,3.952,8.828,8.828,8.828c4.875,0,8.828-3.952,8.828-8.828
		C167.719,118.713,163.77,114.763,158.897,114.759z"/>
	<path style="fill:#E57E25;" d="M158.897,379.586c-34.127,0-61.793-27.666-61.793-61.793S124.769,256,158.897,256
		s61.793,27.666,61.793,61.793C220.65,351.904,193.007,379.546,158.897,379.586z M158.897,273.655
		c-24.377,0-44.138,19.761-44.138,44.138c0,24.377,19.761,44.138,44.138,44.138s44.138-19.761,44.138-44.138
		C203.006,293.428,183.261,273.684,158.897,273.655z"/>
	<g>
		<circle style="fill:#3F5C6C;" cx="123.586" cy="459.034" r="17.655"/>
		<circle style="fill:#3F5C6C;" cx="211.862" cy="459.034" r="17.655"/>
		<circle style="fill:#3F5C6C;" cx="300.138" cy="459.034" r="17.655"/>
		<circle style="fill:#3F5C6C;" cx="388.414" cy="459.034" r="17.655"/>
	</g>
</g>
<g>
</g>
<g>
</g>
<g>
</g>
<g>
</g>
<g>
</g>
<g>
</g>
<g>
</g>
<g>
</g>
<g>
</g>
<g>
</g>
<g>
</g>
<g>
</g>
<g>
</g>
<g>
</g>
<g>
</g>
</svg>
