<?xml version="1.0" encoding="iso-8859-1"?>
<!-- Generator: Adobe Illustrator 19.0.0, SVG Export Plug-In . SVG Version: 6.00 Build 0)  -->
<svg version="1.1" id="Capa_1" xmlns="http://www.w3.org/2000/svg" xmlns:xlink="http://www.w3.org/1999/xlink" x="0px" y="0px"
	 viewBox="0 0 512 512" style="enable-background:new 0 0 512 512;" xml:space="preserve">
<g>
	<g>
		<path style="fill:#7F8C8D;" d="M44.138,379.586h52.966v35.31c0,9.751-7.904,17.655-17.655,17.655H61.793
			c-9.751,0-17.655-7.905-17.655-17.655V379.586z"/>
		<path style="fill:#7F8C8D;" d="M414.897,379.586h52.966v35.31c0,9.751-7.904,17.655-17.655,17.655h-17.655
			c-9.751,0-17.655-7.905-17.655-17.655V379.586z"/>
	</g>
	<path style="fill:#BDC3C7;" d="M35.31,79.448H476.69c19.501,0,35.31,15.809,35.31,35.31v247.172c0,19.501-15.809,35.31-35.31,35.31
		H35.31c-19.501,0-35.31-15.809-35.31-35.31V114.759C0,95.257,15.809,79.448,35.31,79.448z"/>
	<path style="fill:#95A5A5;" d="M300.138,79.448v317.793H35.31c-9.366,0.003-18.348-3.717-24.971-10.339
		C3.717,380.28-0.003,371.297,0,361.931V114.759c-0.003-9.366,3.717-18.349,10.339-24.971S25.945,79.446,35.31,79.448
		L300.138,79.448z"/>
	<path style="fill:#35495E;" d="M256,238.345c0,3.001-0.088,5.914-0.353,8.828c-4.345,51.527-45.224,92.405-96.75,96.75
		c-2.913,0.265-5.826,0.353-8.828,0.353c-3.001,0-5.914-0.088-8.828-0.353c-21.958-1.804-42.798-10.449-59.586-24.717
		c-4.495-3.788-8.659-7.952-12.447-12.447c-14.268-16.788-22.913-37.628-24.717-59.586c-0.265-2.913-0.353-5.826-0.353-8.828
		c0-3.001,0.088-5.914,0.353-8.828c4.345-51.527,45.223-92.405,96.75-96.75c2.913-0.265,5.826-0.353,8.828-0.353
		c3.001,0,5.914,0.088,8.828,0.353c21.958,1.805,42.798,10.449,59.586,24.717c21.438,18.142,34.803,44.048,37.164,72.033
		C255.912,232.43,256,235.343,256,238.345z"/>
	<path style="fill:#BDC3C7;" d="M255.647,247.172h-84.303l59.586,59.586c-3.788,4.495-7.952,8.659-12.447,12.447l-59.586-59.586
		v84.303c-2.913,0.265-5.826,0.353-8.828,0.353c-3.001,0-5.914-0.088-8.828-0.353v-84.303l-59.586,59.586
		c-4.495-3.788-8.659-7.952-12.447-12.447l59.586-59.586H44.491c-0.265-2.913-0.353-5.826-0.353-8.828
		c0-3.001,0.088-5.914,0.353-8.828h84.303l-59.586-59.586c3.788-4.495,7.952-8.659,12.447-12.447l59.586,59.586v-84.303
		c2.913-0.265,5.826-0.353,8.828-0.353c3.001,0,5.914,0.088,8.828,0.353v84.303l59.586-59.586
		c4.495,3.788,8.659,7.952,12.447,12.447l-59.586,59.586h84.303c0.265,2.913,0.353,5.826,0.353,8.828
		C256,241.346,255.912,244.259,255.647,247.172z"/>
	<g>
		<path style="fill:#7F8C8D;" d="M476.69,150.069H335.448c-4.875,0-8.828-3.952-8.828-8.828s3.952-8.828,8.828-8.828H476.69
			c4.875,0,8.828,3.952,8.828,8.828S481.565,150.069,476.69,150.069z"/>
		<path style="fill:#7F8C8D;" d="M476.69,185.379H335.448c-4.875,0-8.828-3.952-8.828-8.828s3.952-8.828,8.828-8.828H476.69
			c4.875,0,8.828,3.952,8.828,8.828S481.565,185.379,476.69,185.379z"/>
		<path style="fill:#7F8C8D;" d="M476.69,220.69H335.448c-4.875,0-8.828-3.952-8.828-8.828s3.952-8.828,8.828-8.828H476.69
			c4.875,0,8.828,3.952,8.828,8.828S481.565,220.69,476.69,220.69z"/>
		<path style="fill:#7F8C8D;" d="M476.69,256H335.448c-4.875,0-8.828-3.952-8.828-8.828s3.952-8.828,8.828-8.828H476.69
			c4.875,0,8.828,3.952,8.828,8.828S481.565,256,476.69,256z"/>
	</g>
	<path style="fill:#4C8056;" d="M354.917,295.77l-18.393,26.437c-1.503,2.639-1.553,5.864-0.131,8.548s4.117,4.455,7.145,4.694
		h36.785c3.028-0.239,5.723-2.01,7.145-4.694c1.422-2.684,1.372-5.908-0.131-8.548l-18.393-26.437
		c-1.275-2.721-4.009-4.459-7.014-4.46C358.926,291.31,356.192,293.049,354.917,295.77z"/>
	<path style="fill:#802F34;" d="M457.221,330.989l18.393-26.437c1.503-2.639,1.553-5.864,0.131-8.548
		c-1.422-2.684-4.117-4.455-7.145-4.694h-36.785c-3.028,0.239-5.723,2.01-7.145,4.694c-1.422,2.684-1.372,5.908,0.131,8.548
		l18.393,26.437c1.275,2.721,4.009,4.459,7.014,4.46S455.946,333.71,457.221,330.989z"/>
	<g>
		<path style="fill:#BDC3C7;" d="M44.138,141.241c-0.593-0.016-1.183-0.075-1.767-0.177c-0.552-0.098-1.086-0.277-1.586-0.53
			c-0.565-0.194-1.101-0.462-1.595-0.797c-0.44-0.35-0.879-0.703-1.319-1.056c-3.414-3.481-3.414-9.054,0-12.534
			c2.828-2.861,7.227-3.458,10.716-1.456s5.191,6.103,4.147,9.987C51.689,138.563,48.16,141.258,44.138,141.241z"/>
		<path style="fill:#BDC3C7;" d="M44.138,353.103c-2.348,0.023-4.607-0.9-6.267-2.56c-1.66-1.66-2.583-3.919-2.56-6.267
			c0.014-1.155,0.254-2.296,0.707-3.358c0.426-1.08,1.055-2.067,1.853-2.91l1.319-1.06c0.494-0.335,1.03-0.604,1.595-0.797
			c0.499-0.254,1.034-0.431,1.586-0.526c3.308-0.694,6.722,0.56,8.794,3.231c2.072,2.671,2.438,6.29,0.942,9.321
			S47.518,353.121,44.138,353.103z"/>
		<path style="fill:#BDC3C7;" d="M256,141.241c-2.337-0.035-4.575-0.949-6.268-2.56c-0.779-0.859-1.406-1.844-1.854-2.914
			c-0.452-1.061-0.692-2.2-0.706-3.354c0.031-2.338,0.945-4.577,2.56-6.268c2.083-2.07,5.061-2.964,7.94-2.383
			c0.586,0.081,1.154,0.259,1.681,0.526c0.542,0.177,1.05,0.447,1.5,0.797c0.526,0.353,0.974,0.707,1.414,1.06
			c1.612,1.693,2.526,3.931,2.561,6.267c-0.014,1.153-0.254,2.293-0.707,3.353c-0.448,1.07-1.074,2.055-1.854,2.914
			c-0.44,0.353-0.888,0.707-1.414,1.056c-0.45,0.351-0.958,0.62-1.5,0.797c-0.528,0.266-1.096,0.445-1.681,0.53
			C257.12,141.166,256.561,141.225,256,141.241z"/>
		<path style="fill:#BDC3C7;" d="M256,353.103c-2.337-0.035-4.575-0.949-6.268-2.56c-0.378-0.421-0.732-0.862-1.06-1.323
			c-0.336-0.491-0.603-1.027-0.793-1.591c-0.255-0.501-0.435-1.037-0.535-1.59c-0.1-0.583-0.157-1.172-0.172-1.763
			c0.031-2.338,0.945-4.577,2.56-6.268c2.083-2.07,5.061-2.964,7.94-2.383c0.586,0.081,1.154,0.259,1.681,0.526
			c0.542,0.177,1.05,0.447,1.5,0.797c0.526,0.353,0.974,0.707,1.414,1.06c1.612,1.693,2.526,3.931,2.561,6.267
			c-0.018,2.34-0.935,4.584-2.56,6.268c-0.44,0.353-0.888,0.707-1.414,1.056c-0.45,0.351-0.958,0.62-1.5,0.797
			c-0.528,0.266-1.096,0.445-1.681,0.53C257.12,353.028,256.561,353.087,256,353.103z"/>
	</g>
</g>
<g>
</g>
<g>
</g>
<g>
</g>
<g>
</g>
<g>
</g>
<g>
</g>
<g>
</g>
<g>
</g>
<g>
</g>
<g>
</g>
<g>
</g>
<g>
</g>
<g>
</g>
<g>
</g>
<g>
</g>
</svg>
