<?xml version="1.0" encoding="iso-8859-1"?>
<!-- Generator: Adobe Illustrator 19.0.0, SVG Export Plug-In . SVG Version: 6.00 Build 0)  -->
<svg version="1.1" id="Capa_1" xmlns="http://www.w3.org/2000/svg" xmlns:xlink="http://www.w3.org/1999/xlink" x="0px" y="0px"
	 viewBox="0 0 512 512" style="enable-background:new 0 0 512 512;" xml:space="preserve">
<g>
	<path style="fill:#B0D3F0;" d="M256,35.31h-17.655c4.869,0.015,8.813,3.958,8.828,8.828v26.483
		c9.739,0.028,17.627,7.916,17.655,17.655v317.793H17.655V88.276c0.028-9.739,7.916-17.627,17.655-17.655V44.138
		c0.015-4.869,3.958-8.813,8.828-8.828H26.483c-4.869-0.015-8.813-3.958-8.828-8.828V8.828C17.67,3.958,21.613,0.015,26.483,0H256
		c4.869,0.015,8.813,3.958,8.828,8.828v17.655C264.813,31.352,260.869,35.296,256,35.31z"/>
	<polygon style="fill:#90BAE1;" points="17.655,388.414 52.966,353.103 229.517,353.103 264.828,388.414 	"/>
	<path style="fill:#8697CB;" d="M114.759,141.241h52.966c4.875,0,8.828,3.952,8.828,8.828v203.034h-70.621V150.069
		C105.931,145.194,109.883,141.241,114.759,141.241z"/>
	<rect x="114.759" y="70.621" style="fill:#556080;" width="52.966" height="70.621"/>
	<path style="fill:#90BAE1;" d="M44.138,35.31h194.207c4.875,0,8.828,3.952,8.828,8.828v26.483H35.31V44.138
		C35.31,39.263,39.263,35.31,44.138,35.31z"/>
	<path style="fill:#B0D3F0;" d="M26.483,0H256c4.875,0,8.828,3.952,8.828,8.828v17.655c0,4.875-3.952,8.828-8.828,8.828H26.483
		c-4.875,0-8.828-3.952-8.828-8.828V8.828C17.655,3.952,21.607,0,26.483,0z"/>
	<path style="fill:#81CCB8;" d="M317.793,123.586V97.103c0-9.751,7.905-17.655,17.655-17.655h97.103
		c9.751,0,17.655,7.904,17.655,17.655v29.396L317.793,123.586z"/>
	<path style="fill:#95A5A5;" d="M503.172,397.241H264.828v-291.31l214.787,23.865c13.412,1.49,23.558,12.826,23.558,26.321V397.241z
		"/>
	<path style="fill:#7F8C8D;" d="M503.172,156.16v20.392l-238.345-26.483v-44.138l214.775,23.834
		C493.03,131.286,503.175,142.647,503.172,156.16z"/>
	<path style="fill:#BDC3C7;" d="M512,397.241v88.276c0.009,7.027-2.778,13.768-7.746,18.737s-11.71,7.756-18.736,7.746H26.483
		c-7.027,0.009-13.768-2.778-18.737-7.746S-0.009,492.544,0,485.517v-88.276c0.015-4.869,3.958-8.813,8.828-8.828h494.345
		C508.042,388.428,511.985,392.372,512,397.241z"/>
	<path style="fill:#95A5A5;" d="M512,476.69v8.828c0.009,7.027-2.778,13.768-7.746,18.737s-11.71,7.756-18.736,7.746H26.483
		c-7.027,0.009-13.768-2.778-18.737-7.746S-0.009,492.544,0,485.517l0-8.828H512z"/>
	<g>
		<path style="fill:#7F8C8D;" d="M379.586,282.483L379.586,282.483c9.751,0,17.655,7.905,17.655,17.655v44.138
			c0,9.751-7.904,17.655-17.655,17.655l0,0c-9.751,0-17.655-7.904-17.655-17.655v-44.138
			C361.931,290.387,369.836,282.483,379.586,282.483z"/>
		<path style="fill:#7F8C8D;" d="M450.207,282.483L450.207,282.483c9.751,0,17.655,7.905,17.655,17.655v44.138
			c0,9.751-7.905,17.655-17.655,17.655l0,0c-9.751,0-17.655-7.904-17.655-17.655v-44.138
			C432.552,290.387,440.456,282.483,450.207,282.483z"/>
	</g>
</g>
<g>
</g>
<g>
</g>
<g>
</g>
<g>
</g>
<g>
</g>
<g>
</g>
<g>
</g>
<g>
</g>
<g>
</g>
<g>
</g>
<g>
</g>
<g>
</g>
<g>
</g>
<g>
</g>
<g>
</g>
</svg>
