<?xml version="1.0" encoding="iso-8859-1"?>
<!-- Generator: Adobe Illustrator 19.0.0, SVG Export Plug-In . SVG Version: 6.00 Build 0)  -->
<svg version="1.1" id="Capa_1" xmlns="http://www.w3.org/2000/svg" xmlns:xlink="http://www.w3.org/1999/xlink" x="0px" y="0px"
	 viewBox="0 0 512 512" style="enable-background:new 0 0 512 512;" xml:space="preserve">
<g>
	<g>
		<path style="fill:#41767F;" d="M134.508,173.559v95.458c-0.028,9.574-7.782,17.328-17.356,17.356H51.894
			c-7.623,0.035-14.364-4.941-16.575-12.236L4.339,173.559H134.508z"/>
		<polygon style="fill:#41767F;" points="464.271,147.525 464.271,190.915 464.271,425.22 273.356,425.22 308.068,156.203 		"/>
	</g>
	<path style="fill:#BDC3C7;" d="M455.593,104.136h34.712c9.585,0,17.356,7.771,17.356,17.356v43.39
		c0,9.585-7.771,17.356-17.356,17.356h-34.712V104.136z"/>
	<path style="fill:#95A5A5;" d="M108.475,8.678H73.763c-4.793,0-8.678,3.885-8.678,8.678s3.885,8.678,8.678,8.678h8.678v26.034
		c0,4.793,3.885,8.678,8.678,8.678s8.678-3.885,8.678-8.678V26.034h8.678c4.793,0,8.678-3.885,8.678-8.678
		S113.267,8.678,108.475,8.678z"/>
	<g>
		<path style="fill:#41767F;" d="M360.136,78.102c-4.793,0-8.678-3.885-8.678-8.678V8.678c0-4.793,3.885-8.678,8.678-8.678
			c4.793,0,8.678,3.885,8.678,8.678v60.746C368.814,74.216,364.928,78.102,360.136,78.102z"/>
		<path style="fill:#41767F;" d="M394.847,78.102c-4.793,0-8.678-3.885-8.678-8.678V8.678c0-4.793,3.885-8.678,8.678-8.678
			s8.678,3.885,8.678,8.678v60.746C403.525,74.216,399.64,78.102,394.847,78.102z"/>
		<path style="fill:#41767F;" d="M429.559,78.102c-4.793,0-8.678-3.885-8.678-8.678V8.678c0-4.793,3.885-8.678,8.678-8.678
			c4.793,0,8.678,3.885,8.678,8.678v60.746C438.237,74.216,434.352,78.102,429.559,78.102z"/>
	</g>
	<g>
		<path style="fill:#67B9CC;" d="M481.627,512H30.373c-14.378,0-26.034-11.656-26.034-26.034v-52.068
			c0-9.585,7.771-17.356,17.356-17.356h468.61c9.585,0,17.356,7.771,17.356,17.356v52.068C507.661,500.344,496.005,512,481.627,512z
			"/>
		<path style="fill:#67B9CC;" d="M134.508,182.237h329.763V78.102c0.009-6.907-2.731-13.535-7.615-18.419
			s-11.511-7.624-18.419-7.615H30.373c-6.907-0.009-13.535,2.731-18.419,7.615S4.33,71.194,4.339,78.102l0,104.136"/>
	</g>
	<path style="fill:#BDC3C7;" d="M82.441,390.508c-4.793,0-8.678-3.885-8.678-8.678v-43.39c0-4.793,3.885-8.678,8.678-8.678
		s8.678,3.885,8.678,8.678v43.39C91.119,386.623,87.233,390.508,82.441,390.508z"/>
	<path style="fill:#84B5CB;" d="M368.814,277.695h43.39c9.585,0,17.356,7.771,17.356,17.356v69.424
		c0,9.585-7.771,17.356-17.356,17.356h-43.39c-9.585,0-17.356-7.771-17.356-17.356v-69.424
		C351.458,285.465,359.228,277.695,368.814,277.695z"/>
	<rect x="351.458" y="321.085" style="fill:#ECF0F1;" width="78.102" height="17.356"/>
	<path style="fill:#41767F;" d="M143.186,86.78h277.695c4.793,0,8.678,3.885,8.678,8.678v43.39c0,4.793-3.885,8.678-8.678,8.678
		H143.186c-4.793,0-8.678-3.885-8.678-8.678v-43.39C134.508,90.665,138.394,86.78,143.186,86.78z"/>
	<g>
		<circle style="fill:#BDC3C7;" cx="364.475" cy="117.153" r="30.373"/>
		<circle style="fill:#BDC3C7;" cx="269.017" cy="117.153" r="30.373"/>
	</g>
	<path style="fill:#41767F;" d="M47.729,512v-52.068c0-4.793,3.885-8.678,8.678-8.678h130.169c4.793,0,8.678,3.885,8.678,8.678V512
		H47.729z"/>
	<path style="fill:#95A5A5;" d="M65.085,277.695h34.712v52.068c0,9.585-7.771,17.356-17.356,17.356s-17.356-7.771-17.356-17.356
		V277.695z"/>
	<polygon style="fill:#BDC3C7;" points="65.085,52.068 65.085,177.586 65.085,286.373 99.797,286.373 99.797,177.586 99.797,52.068 
			"/>
</g>
<g>
</g>
<g>
</g>
<g>
</g>
<g>
</g>
<g>
</g>
<g>
</g>
<g>
</g>
<g>
</g>
<g>
</g>
<g>
</g>
<g>
</g>
<g>
</g>
<g>
</g>
<g>
</g>
<g>
</g>
</svg>
